(export (version D)
  (design
    (source /home/denis/Dropbox/Projects/kicad/attiny13/attiny13.sch)
    (date St 13. červen 2018, 09:15:25 CEST)
    (tool "Eeschema 4.0.7-e2-6376~58~ubuntu14.04.1")
    (sheet (number 1) (name /) (tstamps /)
      (title_block
        (title)
        (company)
        (rev)
        (date)
        (source attiny13.sch)
        (comment (number 1) (value ""))
        (comment (number 2) (value ""))
        (comment (number 3) (value ""))
        (comment (number 4) (value "")))))
  (components
    (comp (ref U1)
      (value ATTINY13A-PU)
      (footprint Housings_DIP:DIP-8_W7.62mm)
      (libsource (lib atmel) (part ATTINY13A-PU))
      (sheetpath (names /) (tstamps /))
      (tstamp 5B1FE5EC))
    (comp (ref C1)
      (value C)
      (footprint Capacitors_SMD:C_1206_HandSoldering)
      (libsource (lib device) (part C))
      (sheetpath (names /) (tstamps /))
      (tstamp 5B1FE62C))
    (comp (ref J3)
      (value ICSP)
      (footprint Pin_Headers:Pin_Header_Straight_2x03_Pitch2.54mm)
      (libsource (lib conn) (part Conn_02x03_Odd_Even))
      (sheetpath (names /) (tstamps /))
      (tstamp 5B1FE6D5))
    (comp (ref R2)
      (value 10k)
      (footprint Resistors_SMD:R_1206_HandSoldering)
      (libsource (lib device) (part R))
      (sheetpath (names /) (tstamps /))
      (tstamp 5B1FE703))
    (comp (ref J2)
      (value right)
      (footprint Pin_Headers:Pin_Header_Straight_1x05_Pitch2.54mm)
      (libsource (lib conn) (part Conn_01x05))
      (sheetpath (names /) (tstamps /))
      (tstamp 5B1FEF30))
    (comp (ref D1)
      (value Power)
      (footprint LEDs:LED_1206_HandSoldering)
      (libsource (lib device) (part LED))
      (sheetpath (names /) (tstamps /))
      (tstamp 5B1FF753))
    (comp (ref R1)
      (value R)
      (footprint Resistors_SMD:R_1206_HandSoldering)
      (libsource (lib device) (part R))
      (sheetpath (names /) (tstamps /))
      (tstamp 5B1FF759))
    (comp (ref J1)
      (value left)
      (footprint Pin_Headers:Pin_Header_Straight_1x05_Pitch2.54mm)
      (libsource (lib conn) (part Conn_01x05))
      (sheetpath (names /) (tstamps /))
      (tstamp 5B20C4CA)))
  (libparts
    (libpart (lib atmel) (part ATTINY13-20PU)
      (aliases
        (alias ATTINY13A-PU))
      (description "PDIP8, 1k Flash, 64B SRAM, 64B EEPROM, Debug Wire")
      (docs http://www.atmel.com/Images/doc2535.pdf)
      (fields
        (field (name Reference) U)
        (field (name Value) ATTINY13-20PU)
        (field (name Footprint) Housings_DIP:DIP-8_W7.62mm))
      (pins
        (pin (num 1) (name "PB5(~RESET~/ADC0/PCINT5/dW)") (type BiDi))
        (pin (num 2) (name "PB3(CLKI/ADC3/PCINT3)") (type BiDi))
        (pin (num 3) (name "PB4(ADC2/PCINT4)") (type BiDi))
        (pin (num 4) (name GND) (type power_in))
        (pin (num 5) (name "PB0(MOSI/AIN0/OC0A/PCINT0)") (type BiDi))
        (pin (num 6) (name "PB1(MISO/AIN1/OC0B/INT0/PCINT1)") (type BiDi))
        (pin (num 7) (name "PB2(SCK/ADC1/T0/PCINT2)") (type BiDi))
        (pin (num 8) (name VCC) (type power_in))))
    (libpart (lib device) (part C)
      (description "Unpolarized capacitor")
      (footprints
        (fp C_*))
      (fields
        (field (name Reference) C)
        (field (name Value) C))
      (pins
        (pin (num 1) (name ~) (type passive))
        (pin (num 2) (name ~) (type passive))))
    (libpart (lib conn) (part Conn_01x05)
      (description "Generic connector, single row, 01x05")
      (docs ~)
      (footprints
        (fp Connector*:*_??x*mm*)
        (fp Connector*:*1x??x*mm*)
        (fp Pin?Header?Straight?1X*)
        (fp Pin?Header?Angled?1X*)
        (fp Socket?Strip?Straight?1X*)
        (fp Socket?Strip?Angled?1X*))
      (fields
        (field (name Reference) J)
        (field (name Value) Conn_01x05))
      (pins
        (pin (num 1) (name Pin_1) (type passive))
        (pin (num 2) (name Pin_2) (type passive))
        (pin (num 3) (name Pin_3) (type passive))
        (pin (num 4) (name Pin_4) (type passive))
        (pin (num 5) (name Pin_5) (type passive))))
    (libpart (lib conn) (part Conn_02x03_Odd_Even)
      (description "Generic connector, double row, 02x03, odd/even pin numbering scheme (row 1 odd numbers, row 2 even numbers)")
      (docs ~)
      (footprints
        (fp Connector*:*2x??x*mm*)
        (fp Connector*:*2x???Pitch*)
        (fp Pin_Header_Straight_2X*)
        (fp Pin_Header_Angled_2X*)
        (fp Socket_Strip_Straight_2X*)
        (fp Socket_Strip_Angled_2X*))
      (fields
        (field (name Reference) J)
        (field (name Value) Conn_02x03_Odd_Even))
      (pins
        (pin (num 1) (name Pin_1) (type passive))
        (pin (num 2) (name Pin_2) (type passive))
        (pin (num 3) (name Pin_3) (type passive))
        (pin (num 4) (name Pin_4) (type passive))
        (pin (num 5) (name Pin_5) (type passive))
        (pin (num 6) (name Pin_6) (type passive))))
    (libpart (lib device) (part LED)
      (description "LED generic")
      (footprints
        (fp LED*))
      (fields
        (field (name Reference) D)
        (field (name Value) LED))
      (pins
        (pin (num 1) (name K) (type passive))
        (pin (num 2) (name A) (type passive))))
    (libpart (lib device) (part R)
      (description Resistor)
      (footprints
        (fp R_*)
        (fp R_*))
      (fields
        (field (name Reference) R)
        (field (name Value) R))
      (pins
        (pin (num 1) (name ~) (type passive))
        (pin (num 2) (name ~) (type passive)))))
  (libraries
    (library (logical device)
      (uri /usr/share/kicad/library/device.lib))
    (library (logical conn)
      (uri /usr/share/kicad/library/conn.lib))
    (library (logical atmel)
      (uri /usr/share/kicad/library/atmel.lib)))
  (nets
    (net (code 1) (name "Net-(D1-Pad2)")
      (node (ref R1) (pin 2))
      (node (ref D1) (pin 2)))
    (net (code 2) (name 5)
      (node (ref U1) (pin 5))
      (node (ref J3) (pin 4))
      (node (ref J2) (pin 5)))
    (net (code 3) (name 7)
      (node (ref U1) (pin 7))
      (node (ref J3) (pin 3))
      (node (ref J2) (pin 3)))
    (net (code 4) (name GND)
      (node (ref C1) (pin 2))
      (node (ref D1) (pin 1))
      (node (ref J1) (pin 1))
      (node (ref U1) (pin 4))
      (node (ref J3) (pin 6))
      (node (ref J2) (pin 1)))
    (net (code 5) (name 1)
      (node (ref R2) (pin 2))
      (node (ref J3) (pin 5))
      (node (ref J1) (pin 3))
      (node (ref U1) (pin 1)))
    (net (code 6) (name 6)
      (node (ref U1) (pin 6))
      (node (ref J3) (pin 1))
      (node (ref J2) (pin 4)))
    (net (code 7) (name +5V)
      (node (ref R1) (pin 1))
      (node (ref J2) (pin 2))
      (node (ref J1) (pin 2))
      (node (ref R2) (pin 1))
      (node (ref J3) (pin 2))
      (node (ref C1) (pin 1))
      (node (ref U1) (pin 8)))
    (net (code 8) (name 3)
      (node (ref J1) (pin 5))
      (node (ref U1) (pin 3)))
    (net (code 9) (name 2)
      (node (ref J1) (pin 4))
      (node (ref U1) (pin 2)))))